…
> 
> flush(stderr()); flush(stdout())
> 
> base::assign(".ptime", proc.time(), pos = "CheckExEnv")
> ### Name: getLogs
> ### Title: Get logsdata for all stems within a SF2010 .hpr file
> ### Aliases: getLogs
> 
> ### ** Examples
> 
> pth <- system.file(package = "sf2010r")
> hprfiles <- list.files(pth,".hpr",recursive=TRUE,full.names=TRUE)
> doc <- xml2::read_xml(hprfiles[1])
> getLogs(doc)
# A tibble: 40 × 16
   StemKey LogKey Produc…¹ LogLe…² m3 (p…³  m3sob  m3sub Butt …⁴ Butt …⁵ Mid o…⁶
     <int>  <int>    <int>   <int>   <dbl>  <dbl>  <dbl>   <int>   <int>   <int>
 1  163859      1   999999      31  0      0.0116 0.0104     238     226     218
 2  163859      2     4274     373  0.0973 0.0922 0.0819     201     190     174
 3  163859      3     4274     434  0.093  0.0895 0.0788     172     162     161
 4  163859      4     4297     452  0.0615 0.0702 0.0615     152     142     140
 5  163859      5     4297     448  0.0369 0.0433 0.0369     127     118     111
 6  163859      6   999999     184  0      0.0095 0.0078      92      84      78
 7  163860      1   999999      55  0      0.0231 0.0208     260     247     229
 8  163860      2     4299     300  0.0795 0.0892 0.0795     214     203     193
 9  163860      3     4297     449  0.0927 0.104  0.0927     181     171     173
10  163860      4     4274     404  0.0855 0.0788 0.0692     166     156     159
# … with 30 more rows, 6 more variables: `Mid ub` <int>, `Top ob` <int>,
#   `Top ub` <int>, `Mid HKS ob` <int>, `Mid HKS ub` <int>, MachineKey <chr>,
#   and abbreviated variable names ¹​ProductKey, ²​LogLength, ³​`m3 (price)`,
#   ⁴​`Butt ob`, ⁵​`Butt ub`, ⁶​`Mid ob`
…
> flush(stderr()); flush(stdout())
> 
> base::assign(".ptime", proc.time(), pos = "CheckExEnv")
> ### Name: getProductMatrixItems
> ### Title: Get the Product Matrix items
> ### Aliases: getProductMatrixItems
> 
> ### ** Examples
> 
> pth <- system.file(package = "sf2010r")
> hprfiles <-  list.files(pth,".hpr",recursive=TRUE,full.names=TRUE)
> doc <- xml2::read_xml(hprfiles[1])
> Productslist <- xml2::xml_find_all(doc, ".//d1:ProductDefinition" )
> getProductMatrixItems(Productslist[[1]])
# A tibble: 24 × 7
   Price Distribution Limitation BuckingCriteria         Produ…¹ diame…² lengt…³
   <chr> <chr>        <chr>      <chr>                     <dbl>   <dbl>   <dbl>
 1 187   0            0          Only logs bucked manua…    4273      40     290
 2 187   0            0          Only logs bucked manua…    4273      50     290
 3 187   0            0          Only logs bucked manua…    4273     120     290
 4 187   0            0          Only logs bucked manua…    4273      40     300
 5 187   0            0          No limit                   4273      50     300
 6 187   0            0          No limit                   4273     120     300
 7 187   0            0          Only logs bucked manua…    4273      40     350
 8 187   0            0          No limit                   4273      50     350
 9 187   0            0          No limit                   4273     120     350
10 187   0            0          Only logs bucked manua…    4273      40     380
# … with 14 more rows, and abbreviated variable names ¹​ProductKey,
#   ²​diameterClassLowerLimit, ³​lengthClassLowerLimit
…
> ### Aliases: getSTP_diameters
> 
> ### ** Examples
> 
> pth <- system.file(package = "sf2010r")
> hprfiles <- list.files(pth,".hpr",recursive=TRUE,full.names= TRUE)
> doc <- xml2::read_xml(hprfiles[1])
> getSTP_diameters(doc)
# A tibble: 0 × 0
> doc <- xml2::read_xml(hprfiles[2])
> getSTP_diameters(doc)
# A tibble: 0 × 0
> doc <- xml2::read_xml(hprfiles[3])
> getSTP_diameters(doc)
# A tibble: 3,163 × 3
   DiameterPositions StemDiameters StemKey
               <int>         <int>   <int>
 1                 0           389  307311
 2                10           374  307311
 3                20           361  307311
 4                30           350  307311
 5                40           341  307311
 6                50           334  307311
 7                60           327  307311
 8                70           322  307311
 9                80           318  307311
10                90           315  307311
# … with 3,153 more rows
…
